POST /indice1/_doc/
{
"guid": "Ocb4df76-5090-422f-9a6e-1a8b3d92b650",
"isActive": false,
"payment": 3146.95,
"picture": "http://placehold.it/32x32",
"age": 21,
"eyeColor": "brown",
"name": {
"first": "Belinda",
"last": "Delaney"
},
"company": "LYRIK",
"email": "belinda.delaney@lyria.net",
"phone": "+1(995) 589-3329",
"address": "125 Dekoven Court, Watchtower, Iowa, 5495",
"about": "In est consectetur do tempor tempor cilium aute anim sint ipsum veniam moult. Officia enim enim irure ea esse ex pariatur veniam eiusmod ullamco irure cupidatat duis. Eu elit occaecat laboris fugiat adofficia Lorem sunt sint eu dolore id sint. Eiusmod duis culpa dolor sint consectetur ipsum consectetur. Commodo id fugiat reprehenderit aliqua occaecat ea sit occaecat amet consequat id. Malik anim qui magna cupidatat cilium consectetur qui commodo nulla. Et voluptate veniam dolore et ex culpa exercitation ex amet Lorem occaecat excepteur minim.",
"registered": "Thursday, January 21, 2016 2:49 AM",
"latitude": "-56.791906",
"longitude": "25.473575",
"tags":[
"duis",
"laborum",
"laboris",
"sit",
"consequat"
],
"range":[ 
0,
1, 
2,
3,
4,
5,
6,
7,
8,
9
],
"friends": [
{
"id": 0,
"name": "Jeannie Dorsey"
},
{
"id": 1,
"name": "Rivera Mayo"
},
{
"id": 2,
"name": "Rosalind Gonzalez"
}
],
"greeting": "Hello, Belinda! You have 5 unread messages.",
"favoriteFruir": "apple"
}

GET /indice1/_mapping

PUT _template/employee
{
  "index_patterns": ["employee*"],
  "settings": {
    "number_of_shards": 1
  },
    "mappings" : {
      "properties" : {
        "about" : {
          "type" : "text",
          "fields" : {
            "keyword" : {
              "type" : "keyword",
              "ignore_above" : 256
            }
          }
        },
        "address" : {
          "type" : "text",
          "fields" : {
            "keyword" : {
              "type" : "keyword",
              "ignore_above" : 256
            }
          }
        },
        "age" : {
          "type" : "long"
        },
        "company" : {
          "type" : "text",
          "fields" : {
            "keyword" : {
              "type" : "keyword",
              "ignore_above" : 256
            }
          }
        },
        "email" : {
          "type" : "text",
          "fields" : {
            "keyword" : {
              "type" : "keyword",
              "ignore_above" : 256
            }
          }
        },
        "eyeColor" : {
          "type" : "text",
          "fields" : {
            "keyword" : {
              "type" : "keyword",
              "ignore_above" : 256
            }
          }
        },
        "favoriteFruir" : {
          "type" : "text",
          "fields" : {
            "keyword" : {
              "type" : "keyword",
              "ignore_above" : 256
            }
          }
        },
        "friends" : {
          "properties" : {
            "id" : {
              "type" : "long"
            },
            "name" : {
              "type" : "text",
              "fields" : {
                "keyword" : {
                  "type" : "keyword",
                  "ignore_above" : 256
                }
              }
            }
          }
        },
        "greeting" : {
          "type" : "text",
          "fields" : {
            "keyword" : {
              "type" : "keyword",
              "ignore_above" : 256
            }
          }
        },
        "guid" : {
          "type" : "text",
          "fields" : {
            "keyword" : {
              "type" : "keyword",
              "ignore_above" : 256
            }
          }
        },
        "isActive" : {
          "type" : "boolean"
        },
        "latitude" : {
          "type" : "text",
          "fields" : {
            "keyword" : {
              "type" : "keyword",
              "ignore_above" : 256
            }
          }
        },
        "longitude" : {
          "type" : "text",
          "fields" : {
            "keyword" : {
              "type" : "keyword",
              "ignore_above" : 256
            }
          }
        },
        "name" : {
          "properties" : {
            "first" : {
              "type" : "text",
              "fields" : {
                "keyword" : {
                  "type" : "keyword",
                  "ignore_above" : 256
                }
              }
            },
            "last" : {
              "type" : "text",
              "fields" : {
                "keyword" : {
                  "type" : "keyword",
                  "ignore_above" : 256
                }
              }
            }
          }
        },
        "payment" : {
          "type" : "float"
        },
        "phone" : {
          "type" : "text",
          "fields" : {
            "keyword" : {
              "type" : "keyword",
              "ignore_above" : 256
            }
          }
        },
        "picture" : {
          "type" : "text",
          "fields" : {
            "keyword" : {
              "type" : "keyword",
              "ignore_above" : 256
            }
          }
        },
        "range" : {
          "type" : "long"
        },
        "registered" : {
          "type" : "text",
          "fields" : {
            "keyword" : {
              "type" : "keyword",
              "ignore_above" : 256
            }
          }
        },
        "tags" : {
          "type" : "text",
          "fields" : {
            "keyword" : {
              "type" : "keyword",
              "ignore_above" : 256
            }
          }
        }
      }
    }
  
}

POST _bulk
{"index": {"_index" : "employee-sps"}}
{"about":"Amet incididunt voluptate in eu duis sint ullamco pariatur irure culpa. Amet mollit dolor excepteur nisi ex sit ullamco. Lorem veniam voluptate non est do. Est id enim incididunt dolore aliqua incididunt excepteur ipsum sint esse commodo sit. In occaecat occaecat fugiat in mollit ut sint velit reprehenderit tempor aliquip reprehenderit. Et exercitation sit elit pariatur veniam officia amet quis occaecat. Voluptate adipisicing dolor cillum anim enim sunt Lorem velit ex magna non enim.","address":"268 Bergen Avenue, Sattley, Rhode Island, 5425","age":27,"company":"IMAGINART","email":"logan.blackburn@imaginart.me","eyeColor":"green","favoriteFruit":"apple","friends":[{"id":0,"name":"Loraine Foreman"},{"id":1,"name":"Elizabeth Burnett"},{"id":2,"name":"Consuelo Patel"}],"greeting":"Hello, Logan! You have 8 unread messages.","guid":"33f177aa-da4a-45cf-9071-9a48c803f744","isActive":false,"latitude":"76.532393","longitude":"-44.824277","name":{"first":"Logan","last":"Blackburn"},"payment":"51722.69","phone":"+1 (995) 460-3467","picture":"http:\/\/placehold.it\/32x32","range":[0,1,2,3,4,5,6,7,8,9],"registered":"Sunday, June 28, 2015 8:48 AM","tags":["elit","nisi","eu","aute","deserunt"]}
{"index": {"_index" : "employee-sps"}}
{"about":"Veniam laborum labore eu sit. Minim est anim reprehenderit mollit non proident. Adipisicing mollit adipisicing qui aliqua do labore cillum commodo aliqua id. Cillum aute voluptate occaecat reprehenderit nulla exercitation excepteur ad quis occaecat proident dolor aliqua. Officia dolor aute deserunt nostrud anim cillum nisi ipsum laborum amet non velit exercitation in. Do fugiat voluptate id officia non adipisicing consequat ex amet consequat.","address":"379 Coyle Street, Remington, Connecticut, 6597","age":21,"company":"PARLEYNET","email":"castillo.knapp@parleynet.co.uk","eyeColor":"brown","favoriteFruit":"strawberry","friends":[{"id":0,"name":"Rachel Daniels"},{"id":1,"name":"Ester Sweet"},{"id":2,"name":"Stefanie Mathis"}],"greeting":"Hello, Castillo! You have 9 unread messages.","guid":"4905d7e1-224c-41fd-bec8-fc9350383dd0","isActive":true,"latitude":"42.833405","longitude":"-6.80161","name":{"first":"Castillo","last":"Knapp"},"payment":"85014.44","phone":"+1 (829) 418-2414","picture":"http:\/\/placehold.it\/32x32","range":[0,1,2,3,4,5,6,7,8,9],"registered":"Friday, April 3, 2015 7:13 PM","tags":["qui","labore","commodo","minim","magna"]}
{"index": {"_index" : "employee-sps"}}
{"about":"Adipisicing cupidatat culpa enim cillum cupidatat aute. Irure sunt elit consequat in nulla veniam adipisicing nisi ad dolore ipsum nostrud pariatur elit. Quis aliquip nulla eiusmod eu nisi tempor laborum do cupidatat velit mollit. Culpa minim aliquip incididunt commodo esse labore ad cillum et labore cillum nulla incididunt reprehenderit. Ex exercitation et et dolore aute ex veniam aliqua nisi amet adipisicing mollit sint exercitation.","address":"755 Freeman Street, Roy, Pennsylvania, 2532","age":21,"company":"SPLINX","email":"sweet.burt@splinx.biz","eyeColor":"green","favoriteFruit":"apple","friends":[{"id":0,"name":"Holland Stephens"},{"id":1,"name":"Bettie Morales"},{"id":2,"name":"Morgan Clay"}],"greeting":"Hello, Sweet! You have 5 unread messages.","guid":"d1225723-5dcd-4522-8669-417274e6a988","isActive":false,"latitude":"-39.309262","longitude":"84.096944","name":{"first":"Sweet","last":"Burt"},"payment":"67455.08","phone":"+1 (807) 417-2783","picture":"http:\/\/placehold.it\/32x32","range":[0,1,2,3,4,5,6,7,8,9],"registered":"Wednesday, July 30, 2014 12:40 PM","tags":["labore","nulla","cillum","ad","elit"]}
{"index": {"_index" : "employee-sps"}}
{"about":"Dolor consequat elit commodo magna duis sit officia eu qui non esse proident. In ex culpa dolore velit irure non non elit dolore. Aliquip officia sint fugiat magna et non veniam veniam aliquip non ea veniam. Nulla Lorem officia magna duis labore veniam mollit culpa consectetur duis velit occaecat dolor pariatur.","address":"530 Stillwell Avenue, Strykersville, New Jersey, 601","age":26,"company":"OULU","email":"lydia.gentry@oulu.org","eyeColor":"green","favoriteFruit":"banana","friends":[{"id":0,"name":"Margaret Turner"},{"id":1,"name":"Mai Abbott"},{"id":2,"name":"Ofelia Davis"}],"greeting":"Hello, Lydia! You have 8 unread messages.","guid":"a30caf44-2d95-41a5-b03f-bfeb5b450bc1","isActive":true,"latitude":"-89.167329","longitude":"-147.674081","name":{"first":"Lydia","last":"Gentry"},"payment":"51104.66","phone":"+1 (911) 600-3341","picture":"http:\/\/placehold.it\/32x32","range":[0,1,2,3,4,5,6,7,8,9],"registered":"Tuesday, December 22, 2015 9:53 PM","tags":["ipsum","pariatur","eiusmod","dolore","ad"]}
{"index": {"_index" : "employee-sps"}}
{"about":"Qui pariatur labore esse elit aute. Elit ex minim cupidatat commodo minim velit sunt. Anim nostrud elit id ad aliquip et voluptate duis sint. Ea non cillum ipsum pariatur enim adipisicing minim ipsum excepteur ex do ad. Veniam ex quis velit nisi quis officia irure excepteur cupidatat exercitation commodo laboris minim.","address":"505 Schweikerts Walk, Sisquoc, Maine, 8925","age":36,"company":"CIRCUM","email":"sasha.watson@circum.tv","eyeColor":"brown","favoriteFruit":"banana","friends":[{"id":0,"name":"Paulette Tucker"},{"id":1,"name":"Etta Nixon"},{"id":2,"name":"Benjamin French"}],"greeting":"Hello, Sasha! You have 9 unread messages.","guid":"5bccd8f0-00d0-4471-8d85-ea663dd84ada","isActive":false,"latitude":"-66.887071","longitude":"10.75838","name":{"first":"Sasha","last":"Watson"},"payment":"72160.82","phone":"+1 (882) 497-3334","picture":"http:\/\/placehold.it\/32x32","range":[0,1,2,3,4,5,6,7,8,9],"registered":"Tuesday, September 30, 2014 2:01 AM","tags":["velit","quis","et","velit","ea"]}
{"index": {"_index" : "employee-sps"}}
{"about":"Incididunt excepteur aliqua reprehenderit magna eiusmod velit ullamco mollit eu cupidatat. Veniam est non aliquip anim commodo. Elit labore occaecat ad eu est. Pariatur mollit mollit sunt irure excepteur et dolore laboris tempor. Veniam ad dolor nisi aliquip veniam voluptate amet. Cillum consequat sunt et eiusmod Lorem mollit ex ex laborum reprehenderit amet amet aute. Amet anim quis adipisicing et occaecat duis cupidatat exercitation quis incididunt duis.","address":"467 Duryea Place, Caln, Washington, 4038","age":20,"company":"GENMEX","email":"kelsey.fields@genmex.com","eyeColor":"blue","favoriteFruit":"apple","friends":[{"id":0,"name":"Spence Harding"},{"id":1,"name":"Taylor Monroe"},{"id":2,"name":"Jefferson Rios"}],"greeting":"Hello, Kelsey! You have 6 unread messages.","guid":"2cfeccc7-0e7b-4e99-a1b5-6e04c4ed1fd3","isActive":false,"latitude":"68.417974","longitude":"-131.842053","name":{"first":"Kelsey","last":"Fields"},"payment":"59213.35","phone":"+1 (961) 493-3149","picture":"http:\/\/placehold.it\/32x32","range":[0,1,2,3,4,5,6,7,8,9],"registered":"Monday, January 12, 2015 5:55 PM","tags":["non","non","sint","ipsum","amet"]}
{"index": {"_index" : "employee-sps"}}
{"about":"Do excepteur enim sit consectetur dolor ad anim Lorem ea. Aute labore adipisicing dolor nulla. Irure eiusmod consectetur et id eiusmod. Adipisicing et incididunt reprehenderit quis. Pariatur adipisicing ut dolore ipsum. Id consequat Lorem sint nisi irure.","address":"200 Colby Court, Allentown, New York, 3020","age":26,"company":"ARTWORLDS","email":"kemp.stephenson@artworlds.net","eyeColor":"green","favoriteFruit":"apple","friends":[{"id":0,"name":"Fisher Gonzalez"},{"id":1,"name":"Roth Gillespie"},{"id":2,"name":"Earnestine Christensen"}],"greeting":"Hello, Kemp! You have 9 unread messages.","guid":"fcf577df-77e6-492e-9e4e-6e67814c2024","isActive":false,"latitude":"1.909235","longitude":"-152.887784","name":{"first":"Kemp","last":"Stephenson"},"payment":"65523.83","phone":"+1 (894) 546-3036","picture":"http:\/\/placehold.it\/32x32","range":[0,1,2,3,4,5,6,7,8,9],"registered":"Tuesday, November 20, 2018 3:55 PM","tags":["quis","officia","velit","magna","elit"]}
{"index": {"_index" : "employee-sps"}}
{"about":"Adipisicing eiusmod et id deserunt esse ipsum enim officia dolor nulla non. Cupidatat irure adipisicing excepteur minim incididunt occaecat. In velit veniam reprehenderit aliqua laboris laboris aute. Lorem veniam occaecat esse proident nulla labore occaecat anim esse. Sit tempor ullamco exercitation culpa occaecat ad sint ex dolore est officia ex occaecat.","address":"738 Paerdegat Avenue, Santel, New Hampshire, 2833","age":25,"company":"HALAP","email":"carrie.dickson@halap.io","eyeColor":"brown","favoriteFruit":"apple","friends":[{"id":0,"name":"Silvia Byrd"},{"id":1,"name":"Diane Mccray"},{"id":2,"name":"Maryann Armstrong"}],"greeting":"Hello, Carrie! You have 7 unread messages.","guid":"b94db454-16fb-415c-9c8e-c2a5cab403d9","isActive":true,"latitude":"44.515715","longitude":"74.840272","name":{"first":"Carrie","last":"Dickson"},"payment":"71386.77","phone":"+1 (808) 554-3846","picture":"http:\/\/placehold.it\/32x32","range":[0,1,2,3,4,5,6,7,8,9],"registered":"Sunday, February 25, 2018 8:56 AM","tags":["nostrud","occaecat","ullamco","exercitation","ullamco"]}
{"index": {"_index" : "employee-sps"}}
{"about":"Nisi dolor ipsum amet cillum sit reprehenderit. Dolor nisi in cillum in irure est mollit veniam cillum cupidatat do officia aliquip. Ad commodo tempor velit cupidatat fugiat elit sunt. Duis ad exercitation dolor ullamco nisi. Adipisicing esse sit ea ipsum culpa est ut fugiat id ullamco. Laboris consequat velit incididunt et do amet sunt mollit proident Lorem. Aliquip nostrud ullamco eu dolor dolor qui voluptate et nostrud voluptate.","address":"686 Prospect Avenue, Wedgewood, New Mexico, 3368","age":22,"company":"VIRVA","email":"conway.dorsey@virva.name","eyeColor":"green","favoriteFruit":"apple","friends":[{"id":0,"name":"Antonia Ashley"},{"id":1,"name":"Charles Hinton"},{"id":2,"name":"Baird Wilcox"}],"greeting":"Hello, Conway! You have 10 unread messages.","guid":"2b69600f-885c-4197-bac2-ade3e22ffcd1","isActive":true,"latitude":"-83.481568","longitude":"134.44627","name":{"first":"Conway","last":"Dorsey"},"payment":"42018.81","phone":"+1 (930) 411-3265","picture":"http:\/\/placehold.it\/32x32","range":[0,1,2,3,4,5,6,7,8,9],"registered":"Monday, April 7, 2014 4:30 AM","tags":["irure","velit","dolore","sint","sunt"]}
{"index": {"_index" : "employee-sps"}}
{"about":"Eiusmod aute consectetur in et commodo sunt. Esse elit enim ex reprehenderit commodo et veniam. Fugiat voluptate ullamco est sit deserunt aliquip voluptate. Adipisicing excepteur aliqua eu qui. Tempor laboris enim esse do non tempor nulla non est aliqua excepteur irure.","address":"887 Frost Street, Dupuyer, Arkansas, 7646","age":24,"company":"CONJURICA","email":"leann.bauer@conjurica.info","eyeColor":"green","favoriteFruit":"banana","friends":[{"id":0,"name":"Tami Mcdonald"},{"id":1,"name":"Lila Coffey"},{"id":2,"name":"Beatriz Berger"}],"greeting":"Hello, Leann! You have 7 unread messages.","guid":"23b99949-dc1a-4ff3-8828-d95bdda1b366","isActive":true,"latitude":"-69.431808","longitude":"-27.409118","name":{"first":"Leann","last":"Bauer"},"payment":"61739.34","phone":"+1 (904) 573-3998","picture":"http:\/\/placehold.it\/32x32","range":[0,1,2,3,4,5,6,7,8,9],"registered":"Monday, April 11, 2016 12:18 AM","tags":["aliqua","amet","nulla","deserunt","magna"]}
{"index": {"_index" : "employee-sps"}}
{"about":"Ea tempor amet culpa tempor labore. Id sint culpa exercitation reprehenderit voluptate incididunt sunt nulla velit. Cillum adipisicing adipisicing pariatur dolore incididunt exercitation eu nulla veniam. Est amet ex in do veniam magna ea cillum. Do tempor ut est aliquip enim exercitation.","address":"352 Dewitt Avenue, Cumberland, Georgia, 5962","age":32,"company":"EXTRO","email":"beard.smith@extro.us","eyeColor":"green","favoriteFruit":"banana","friends":[{"id":0,"name":"Chase Heath"},{"id":1,"name":"Whitney Wood"},{"id":2,"name":"Schneider Dalton"}],"greeting":"Hello, Beard! You have 10 unread messages.","guid":"a37eff50-cec8-4534-b3b4-06e701c5f2ca","isActive":true,"latitude":"-16.161158","longitude":"-152.796721","name":{"first":"Beard","last":"Smith"},"payment":"75915.91","phone":"+1 (843) 443-3204","picture":"http:\/\/placehold.it\/32x32","range":[0,1,2,3,4,5,6,7,8,9],"registered":"Thursday, August 3, 2017 1:30 AM","tags":["aliqua","elit","laborum","labore","excepteur"]}
{"index": {"_index" : "employee-sps"}}
{"about":"Ipsum est quis cupidatat Lorem velit do nulla dolore nisi excepteur duis eiusmod. Eu nulla velit magna consectetur ad amet cupidatat nulla. Adipisicing anim amet mollit consequat mollit cillum ea Lorem anim. Commodo anim magna ad sunt ex exercitation ut enim exercitation. Cillum pariatur sit et sint cupidatat minim. Id elit minim occaecat velit magna mollit. Anim minim aliqua est culpa proident.","address":"215 Gunther Place, Jackpot, Tennessee, 9087","age":30,"company":"UNIWORLD","email":"dale.lloyd@uniworld.ca","eyeColor":"green","favoriteFruit":"banana","friends":[{"id":0,"name":"Doreen Lucas"},{"id":1,"name":"Moran Holland"},{"id":2,"name":"Beck Bell"}],"greeting":"Hello, Dale! You have 7 unread messages.","guid":"c976d2f9-0751-4560-9913-fbbe3b4ca1be","isActive":true,"latitude":"-49.525443","longitude":"132.250751","name":{"first":"Dale","last":"Lloyd"},"payment":"7309.74","phone":"+1 (936) 428-2483","picture":"http:\/\/placehold.it\/32x32","range":[0,1,2,3,4,5,6,7,8,9],"registered":"Wednesday, May 21, 2014 3:54 PM","tags":["non","excepteur","voluptate","tempor","voluptate"]}
{"index": {"_index" : "employee-sps"}}
{"about":"Deserunt magna sit laboris nulla reprehenderit. Tempor fugiat sint quis cillum in exercitation exercitation esse fugiat in. Irure magna mollit ex duis.","address":"235 Matthews Court, Grapeview, North Carolina, 7920","age":27,"company":"PHORMULA","email":"ferrell.reeves@phormula.me","eyeColor":"green","favoriteFruit":"strawberry","friends":[{"id":0,"name":"Corrine Padilla"},{"id":1,"name":"Janelle Mccall"},{"id":2,"name":"Aurora Bass"}],"greeting":"Hello, Ferrell! You have 9 unread messages.","guid":"4b6c46fd-f88a-4dc7-89a4-48bede8370c8","isActive":true,"latitude":"50.545449","longitude":"-147.060084","name":{"first":"Ferrell","last":"Reeves"},"payment":"9229.18","phone":"+1 (998) 540-3103","picture":"http:\/\/placehold.it\/32x32","range":[0,1,2,3,4,5,6,7,8,9],"registered":"Sunday, July 22, 2018 4:22 AM","tags":["ad","dolore","sunt","adipisicing","proident"]}
{"index": {"_index" : "employee-sps"}}
{"about":"Reprehenderit laborum sit magna esse cupidatat anim. Culpa adipisicing culpa adipisicing ullamco aute sint fugiat minim mollit laborum. Magna occaecat proident amet minim. Velit id culpa voluptate laboris nulla magna eu amet sint nisi aliquip cupidatat. Do ut eiusmod commodo do qui ipsum ut deserunt aliqua sit pariatur consequat incididunt est.","address":"458 Gatling Place, Bladensburg, Puerto Rico, 893","age":24,"company":"GOKO","email":"kirk.murray@goko.co.uk","eyeColor":"brown","favoriteFruit":"strawberry","friends":[{"id":0,"name":"Shana Farmer"},{"id":1,"name":"Pruitt Bryan"},{"id":2,"name":"Ursula Savage"}],"greeting":"Hello, Kirk! You have 5 unread messages.","guid":"c6a5fbeb-fef3-4661-bff2-377fb31dace7","isActive":true,"latitude":"-68.761279","longitude":"6.24325","name":{"first":"Kirk","last":"Murray"},"payment":"11016.07","phone":"+1 (987) 445-2513","picture":"http:\/\/placehold.it\/32x32","range":[0,1,2,3,4,5,6,7,8,9],"registered":"Thursday, July 9, 2015 2:35 PM","tags":["irure","consequat","dolore","nisi","enim"]}
{"index": {"_index" : "employee-sps"}}
{"about":"Fugiat quis do amet duis eiusmod ex magna anim consequat non irure proident dolore labore. Est anim eiusmod ex veniam sint enim officia et id laborum. Ut excepteur magna cupidatat enim tempor ullamco cupidatat culpa eiusmod et officia qui reprehenderit. Adipisicing reprehenderit ipsum occaecat nostrud. Officia qui velit voluptate id deserunt fugiat aliqua ipsum laboris enim.","address":"737 Dwight Street, Springville, Alaska, 1916","age":32,"company":"COMTREK","email":"katina.hansen@comtrek.biz","eyeColor":"green","favoriteFruit":"strawberry","friends":[{"id":0,"name":"Dickerson Hayden"},{"id":1,"name":"Angelique Ochoa"},{"id":2,"name":"Melissa Bradshaw"}],"greeting":"Hello, Katina! You have 8 unread messages.","guid":"732949a1-43e2-4243-b058-1886a83ceda6","isActive":true,"latitude":"-64.713441","longitude":"-20.310355","name":{"first":"Katina","last":"Hansen"},"payment":"11420.03","phone":"+1 (987) 554-2632","picture":"http:\/\/placehold.it\/32x32","range":[0,1,2,3,4,5,6,7,8,9],"registered":"Wednesday, September 24, 2014 3:46 PM","tags":["laboris","sit","et","quis","pariatur"]}
{"index": {"_index" : "employee-sps"}}
{"about":"Ut culpa occaecat non dolor elit eiusmod aliquip labore sint elit. Ex sunt consequat mollit officia mollit eiusmod consequat velit magna adipisicing. Esse in do sit labore et culpa velit. Do magna adipisicing est sunt nulla nostrud eiusmod dolor. Velit adipisicing aliquip nulla deserunt ut consectetur sint. Irure occaecat adipisicing id cupidatat. Nostrud ipsum anim ea incididunt minim dolore consequat occaecat proident aliqua.","address":"954 Stuart Street, Glenshaw, Oregon, 8366","age":31,"company":"DANCITY","email":"caldwell.klein@dancity.org","eyeColor":"blue","favoriteFruit":"strawberry","friends":[{"id":0,"name":"Kris Thornton"},{"id":1,"name":"Nola Spence"},{"id":2,"name":"Jordan Herman"}],"greeting":"Hello, Caldwell! You have 6 unread messages.","guid":"287a9d36-62fa-4f52-bdd3-9d6fc68cd216","isActive":false,"latitude":"-48.441944","longitude":"19.271598","name":{"first":"Caldwell","last":"Klein"},"payment":"68755.22","phone":"+1 (991) 404-2409","picture":"http:\/\/placehold.it\/32x32","range":[0,1,2,3,4,5,6,7,8,9],"registered":"Thursday, June 1, 2017 7:05 PM","tags":["velit","aliqua","sunt","voluptate","consequat"]}
{"index": {"_index" : "employee-sps"}}
{"about":"Minim et sint proident velit pariatur enim irure consectetur amet culpa nostrud. Enim cupidatat aliqua culpa veniam esse minim anim do fugiat. Culpa exercitation qui incididunt mollit sit ea quis officia. Dolor culpa commodo minim officia dolore officia ullamco esse nostrud esse incididunt tempor. Esse proident ullamco mollit incididunt culpa. Nostrud amet officia pariatur aliqua aute duis laborum.","address":"365 Luquer Street, Witmer, Idaho, 4086","age":27,"company":"PETICULAR","email":"mia.chandler@peticular.tv","eyeColor":"brown","favoriteFruit":"strawberry","friends":[{"id":0,"name":"Ruby Carter"},{"id":1,"name":"Emilia Stafford"},{"id":2,"name":"Charlene Ware"}],"greeting":"Hello, Mia! You have 10 unread messages.","guid":"f8e4f63b-a0f0-4b55-a52c-43a3cf69220f","isActive":false,"latitude":"-1.225852","longitude":"152.732465","name":{"first":"Mia","last":"Chandler"},"payment":"77082.56","phone":"+1 (874) 589-3748","picture":"http:\/\/placehold.it\/32x32","range":[0,1,2,3,4,5,6,7,8,9],"registered":"Friday, November 14, 2014 4:09 AM","tags":["dolore","incididunt","nulla","amet","ut"]}
{"index": {"_index" : "employee-sps"}}
{"about":"Consequat aute occaecat sint nostrud veniam commodo. Nostrud aute nostrud ut proident. In pariatur aliqua nulla magna et quis labore nulla non occaecat qui cillum aliquip laborum. Cupidatat consequat sunt proident mollit nulla occaecat in amet consequat. Ipsum adipisicing sit ex ullamco consectetur sunt do amet cillum reprehenderit sunt.","address":"931 Logan Street, Waterview, Ohio, 5687","age":34,"company":"INSURESYS","email":"magdalena.orr@insuresys.com","eyeColor":"green","favoriteFruit":"apple","friends":[{"id":0,"name":"Alissa Hess"},{"id":1,"name":"Ella Hendricks"},{"id":2,"name":"Autumn Vega"}],"greeting":"Hello, Magdalena! You have 5 unread messages.","guid":"90f3a7d7-7dfa-4631-8101-1669c463e3f9","isActive":false,"latitude":"-44.131648","longitude":"68.48121","name":{"first":"Magdalena","last":"Orr"},"payment":"84290.51","phone":"+1 (941) 493-3254","picture":"http:\/\/placehold.it\/32x32","range":[0,1,2,3,4,5,6,7,8,9],"registered":"Wednesday, February 11, 2015 3:14 AM","tags":["non","cillum","consequat","do","eu"]}
{"index": {"_index" : "employee-sps"}}
{"about":"Eiusmod sint dolore esse adipisicing aute in fugiat. Esse cillum dolor ex amet voluptate et sunt commodo ea sint. Qui dolore esse pariatur eu esse fugiat excepteur laborum. Cupidatat minim irure laboris laborum sit labore nisi mollit commodo elit. Ad duis deserunt est veniam tempor irure labore commodo magna cillum non exercitation eiusmod. Lorem eiusmod esse minim voluptate cillum adipisicing cillum consectetur mollit cillum ad do.","address":"243 Ridgewood Avenue, Cawood, American Samoa, 6402","age":27,"company":"GOLOGY","email":"georgette.evans@gology.net","eyeColor":"green","favoriteFruit":"banana","friends":[{"id":0,"name":"Deanna Kaufman"},{"id":1,"name":"Dorsey Payne"},{"id":2,"name":"Dudley Ingram"}],"greeting":"Hello, Georgette! You have 7 unread messages.","guid":"db4e3e76-eea6-4fb8-bf5b-5091fed6204e","isActive":false,"latitude":"-63.36818","longitude":"33.509385","name":{"first":"Georgette","last":"Evans"},"payment":"67749.29","phone":"+1 (824) 558-3437","picture":"http:\/\/placehold.it\/32x32","range":[0,1,2,3,4,5,6,7,8,9],"registered":"Thursday, August 6, 2015 11:36 AM","tags":["commodo","dolor","laborum","irure","ea"]}
{"index": {"_index" : "employee-sps"}}
{"about":"Dolore minim tempor aliqua proident sint esse tempor excepteur eiusmod exercitation adipisicing non laboris dolor. Sint aliquip consequat nulla id sunt ad aliqua. Consequat reprehenderit consectetur sit qui reprehenderit esse elit commodo culpa quis aliquip enim. Culpa fugiat adipisicing sint eiusmod mollit aliquip tempor pariatur Lorem tempor sunt culpa duis do. Duis elit cupidatat culpa incididunt ipsum.","address":"641 Morton Street, Chumuckla, Florida, 1164","age":38,"company":"GOLISTIC","email":"allison.may@golistic.io","eyeColor":"blue","favoriteFruit":"apple","friends":[{"id":0,"name":"Griffin Ball"},{"id":1,"name":"Nadia Harrell"},{"id":2,"name":"Anderson Ross"}],"greeting":"Hello, Allison! You have 8 unread messages.","guid":"c1b81bfd-4f4c-4f5e-be9d-9c46e145c764","isActive":false,"latitude":"-71.455192","longitude":"-129.162124","name":{"first":"Allison","last":"May"},"payment":"69161.54","phone":"+1 (979) 591-2442","picture":"http:\/\/placehold.it\/32x32","range":[0,1,2,3,4,5,6,7,8,9],"registered":"Friday, December 25, 2015 9:43 AM","tags":["mollit","deserunt","commodo","veniam","qui"]}
{"index": {"_index" : "employee-sps"}}
{"about":"Pariatur culpa culpa ea cillum dolore commodo Lorem esse commodo consectetur ex dolore reprehenderit. Exercitation commodo ullamco ipsum sunt pariatur ipsum voluptate anim deserunt sint reprehenderit esse veniam magna. Minim et consectetur Lorem ut cupidatat aliquip minim cillum exercitation. Do aute non voluptate nulla ullamco ipsum enim laborum cillum laborum laborum cillum voluptate. Culpa nostrud officia excepteur laboris deserunt laborum. Irure deserunt anim incididunt veniam nulla.","address":"301 Kimball Street, Darbydale, Oklahoma, 4689","age":29,"company":"COMBOT","email":"kellie.boyer@combot.name","eyeColor":"blue","favoriteFruit":"apple","friends":[{"id":0,"name":"Suzette Michael"},{"id":1,"name":"Malinda Bolton"},{"id":2,"name":"Marsha Martin"}],"greeting":"Hello, Kellie! You have 10 unread messages.","guid":"adb29fda-3127-47a3-ae5a-d08c5d3eb806","isActive":false,"latitude":"-50.382965","longitude":"-86.285611","name":{"first":"Kellie","last":"Boyer"},"payment":"77131.15","phone":"+1 (949) 402-2515","picture":"http:\/\/placehold.it\/32x32","range":[0,1,2,3,4,5,6,7,8,9],"registered":"Monday, January 25, 2016 6:20 AM","tags":["officia","aute","anim","laboris","labore"]}
{"index": {"_index" : "employee-sps"}}
{"about":"Voluptate officia Lorem nulla enim aute est. Consequat et officia sit tempor. Id voluptate exercitation magna tempor laboris.","address":"194 Wyona Street, Fairlee, Delaware, 4568","age":26,"company":"GEOFORM","email":"nicole.crawford@geoform.info","eyeColor":"brown","favoriteFruit":"banana","friends":[{"id":0,"name":"Genevieve Rogers"},{"id":1,"name":"Rodriguez Whitehead"},{"id":2,"name":"Reid Nieves"}],"greeting":"Hello, Nicole! You have 5 unread messages.","guid":"e749abd6-8843-411e-b6db-2bbb07dc7845","isActive":false,"latitude":"12.765801","longitude":"-103.886222","name":{"first":"Nicole","last":"Crawford"},"payment":"48102.04","phone":"+1 (891) 482-2635","picture":"http:\/\/placehold.it\/32x32","range":[0,1,2,3,4,5,6,7,8,9],"registered":"Tuesday, April 18, 2017 6:08 AM","tags":["officia","excepteur","eiusmod","ullamco","tempor"]}
{"index": {"_index" : "employee-sps"}}
{"about":"Sit aute veniam laborum ea esse veniam enim. Excepteur veniam Lorem sunt aliquip qui sit labore qui. Do elit reprehenderit quis consectetur mollit duis nisi adipisicing irure excepteur nulla laborum culpa non. Voluptate cillum pariatur est ea aliquip labore duis ullamco aliqua esse occaecat velit cupidatat dolor.","address":"970 Cooke Court, Retsof, South Carolina, 8886","age":33,"company":"EXPOSA","email":"olga.bryant@exposa.us","eyeColor":"blue","favoriteFruit":"banana","friends":[{"id":0,"name":"Mccoy Young"},{"id":1,"name":"Brittney Nunez"},{"id":2,"name":"Lora Zamora"}],"greeting":"Hello, Olga! You have 10 unread messages.","guid":"6244fbbc-6c7f-4315-bdb5-f431d0e76df1","isActive":false,"latitude":"-48.502747","longitude":"-160.185927","name":{"first":"Olga","last":"Bryant"},"payment":"24376.35","phone":"+1 (973) 499-2516","picture":"http:\/\/placehold.it\/32x32","range":[0,1,2,3,4,5,6,7,8,9],"registered":"Tuesday, September 15, 2015 9:47 PM","tags":["esse","deserunt","ut","et","proident"]}
{"index": {"_index" : "employee-sps"}}
{"about":"Ut sit sit ex enim labore consequat ut culpa. Esse sint aute fugiat velit fugiat non ut. Nostrud commodo tempor cillum dolore incididunt veniam nisi laboris.","address":"265 Perry Place, Weogufka, Hawaii, 1568","age":31,"company":"ZILLACTIC","email":"imelda.mcgee@zillactic.ca","eyeColor":"blue","favoriteFruit":"apple","friends":[{"id":0,"name":"Cantu Lambert"},{"id":1,"name":"Larsen Adams"},{"id":2,"name":"Hickman Wilson"}],"greeting":"Hello, Imelda! You have 6 unread messages.","guid":"87a19ea7-07c4-42e2-8bc1-f6a6ea1a5f4f","isActive":true,"latitude":"70.277571","longitude":"71.104936","name":{"first":"Imelda","last":"Mcgee"},"payment":"68378.71","phone":"+1 (970) 591-2046","picture":"http:\/\/placehold.it\/32x32","range":[0,1,2,3,4,5,6,7,8,9],"registered":"Sunday, September 13, 2015 10:24 PM","tags":["magna","laboris","aliqua","ad","consequat"]}
{"index": {"_index" : "employee-sps"}}
{"about":"Ullamco exercitation qui dolore nulla irure. Amet elit dolor ut id voluptate. Laboris in consequat aliquip nisi sint enim amet qui anim nulla eiusmod sint voluptate.","address":"662 Martense Street, Heil, Vermont, 1983","age":27,"company":"AQUAFIRE","email":"corinne.rasmussen@aquafire.me","eyeColor":"green","favoriteFruit":"apple","friends":[{"id":0,"name":"Letha Travis"},{"id":1,"name":"Matthews Kane"},{"id":2,"name":"Scott Horn"}],"greeting":"Hello, Corinne! You have 6 unread messages.","guid":"63736810-9fd7-445f-be04-ccad1bfe7e08","isActive":false,"latitude":"26.332157","longitude":"-31.76547","name":{"first":"Corinne","last":"Rasmussen"},"payment":"33290.92","phone":"+1 (923) 567-2289","picture":"http:\/\/placehold.it\/32x32","range":[0,1,2,3,4,5,6,7,8,9],"registered":"Tuesday, July 3, 2018 8:49 PM","tags":["ullamco","sint","in","ex","ex"]}
{"index": {"_index" : "employee-sps"}}
{"about":"Eiusmod consectetur laboris labore quis cillum nostrud magna mollit exercitation. Occaecat ut excepteur elit irure et est sint voluptate commodo ullamco dolor ullamco consectetur non. Magna exercitation ullamco esse Lorem. Sit reprehenderit id amet culpa proident adipisicing officia proident cillum sint consectetur laborum. Aliquip incididunt do deserunt voluptate dolor dolore adipisicing est qui culpa veniam ipsum.","address":"314 Harbor Lane, Hiwasse, District Of Columbia, 2218","age":20,"company":"EVIDENDS","email":"johnston.snow@evidends.co.uk","eyeColor":"green","favoriteFruit":"banana","friends":[{"id":0,"name":"Raquel King"},{"id":1,"name":"Cotton Blanchard"},{"id":2,"name":"David Peters"}],"greeting":"Hello, Johnston! You have 5 unread messages.","guid":"f5fbba87-d159-4206-8c1b-a1d853f3fb22","isActive":false,"latitude":"68.417451","longitude":"-121.469247","name":{"first":"Johnston","last":"Snow"},"payment":"79123.54","phone":"+1 (990) 493-3748","picture":"http:\/\/placehold.it\/32x32","range":[0,1,2,3,4,5,6,7,8,9],"registered":"Tuesday, August 18, 2015 10:52 AM","tags":["proident","pariatur","id","aute","voluptate"]}
{"index": {"_index" : "employee-sps"}}
{"about":"Dolore ex cupidatat tempor exercitation qui exercitation voluptate sint. Eiusmod exercitation sit fugiat proident ad incididunt. Ex culpa id sint officia aliqua id sit ex in.","address":"299 Scott Avenue, Cashtown, Illinois, 3461","age":30,"company":"VISALIA","email":"rush.barry@visalia.biz","eyeColor":"green","favoriteFruit":"strawberry","friends":[{"id":0,"name":"Owens Tanner"},{"id":1,"name":"Pittman Tillman"},{"id":2,"name":"Lourdes Fox"}],"greeting":"Hello, Rush! You have 9 unread messages.","guid":"38aecb6a-1481-4d2d-aa4d-cee8ba21704a","isActive":true,"latitude":"13.557176","longitude":"75.419338","name":{"first":"Rush","last":"Barry"},"payment":"20438.86","phone":"+1 (907) 410-2775","picture":"http:\/\/placehold.it\/32x32","range":[0,1,2,3,4,5,6,7,8,9],"registered":"Thursday, November 2, 2017 12:35 AM","tags":["cupidatat","ea","culpa","elit","eiusmod"]}
{"index": {"_index" : "employee-sps"}}
{"about":"Sit quis aliqua qui esse ad qui ipsum Lorem proident consectetur laboris elit dolore. Aliquip elit et labore fugiat anim magna do cupidatat aliqua ipsum. Veniam excepteur esse culpa laborum pariatur cupidatat nisi. Ea est veniam consectetur laborum nostrud sunt ut id mollit. Consectetur esse ad irure sint. Est fugiat ullamco quis eiusmod id.","address":"117 Bainbridge Street, Connerton, Marshall Islands, 5638","age":40,"company":"COMVEY","email":"vanessa.curry@comvey.org","eyeColor":"brown","favoriteFruit":"banana","friends":[{"id":0,"name":"Weiss Keith"},{"id":1,"name":"Grimes Acevedo"},{"id":2,"name":"Matilda Knox"}],"greeting":"Hello, Vanessa! You have 10 unread messages.","guid":"0d2b8d1f-2606-4fcd-bd5e-610997043223","isActive":false,"latitude":"32.3262","longitude":"103.985262","name":{"first":"Vanessa","last":"Curry"},"payment":"15854.36","phone":"+1 (804) 424-2998","picture":"http:\/\/placehold.it\/32x32","range":[0,1,2,3,4,5,6,7,8,9],"registered":"Sunday, May 11, 2014 1:42 PM","tags":["cupidatat","anim","do","culpa","sint"]}
{"index": {"_index" : "employee-sps"}}
{"about":"Magna enim aliqua laborum enim incididunt. Sint exercitation dolore do aliqua elit adipisicing est cupidatat. Nostrud ad sint minim elit amet do velit fugiat cillum mollit magna commodo. Proident fugiat pariatur ut dolore nulla. Consectetur consequat irure dolore velit deserunt.","address":"579 Marconi Place, Yogaville, Missouri, 7458","age":25,"company":"ECOSYS","email":"jeanie.stanton@ecosys.tv","eyeColor":"brown","favoriteFruit":"banana","friends":[{"id":0,"name":"Dominguez Nash"},{"id":1,"name":"Marshall Strickland"},{"id":2,"name":"Lynch Gates"}],"greeting":"Hello, Jeanie! You have 6 unread messages.","guid":"ba831242-4e77-455a-91b9-e2ab9b9f8cb0","isActive":false,"latitude":"-38.88002","longitude":"-172.429129","name":{"first":"Jeanie","last":"Stanton"},"payment":"50560.22","phone":"+1 (881) 479-3119","picture":"http:\/\/placehold.it\/32x32","range":[0,1,2,3,4,5,6,7,8,9],"registered":"Thursday, April 12, 2018 8:17 AM","tags":["ut","ut","cupidatat","eiusmod","proident"]}
{"index": {"_index" : "employee-sps"}}
{"about":"Do mollit voluptate exercitation aute fugiat officia consectetur anim eu incididunt. Ipsum veniam tempor veniam nostrud id quis cillum labore velit. Aliquip ex duis ad nostrud nisi tempor. Aliqua minim reprehenderit occaecat eiusmod Lorem consectetur laboris. Aliqua ea irure deserunt dolor proident sunt. Sit sit eiusmod officia voluptate.","address":"898 Orient Avenue, Allamuchy, Alabama, 6731","age":21,"company":"LUXURIA","email":"deanne.buck@luxuria.com","eyeColor":"brown","favoriteFruit":"apple","friends":[{"id":0,"name":"Misty Mcpherson"},{"id":1,"name":"Davidson Cline"},{"id":2,"name":"Mona Cantrell"}],"greeting":"Hello, Deanne! You have 6 unread messages.","guid":"cfe109d6-5239-410f-8a34-34c8c9470ff0","isActive":true,"latitude":"73.811441","longitude":"135.465174","name":{"first":"Deanne","last":"Buck"},"payment":"56933.21","phone":"+1 (833) 550-3292","picture":"http:\/\/placehold.it\/32x32","range":[0,1,2,3,4,5,6,7,8,9],"registered":"Sunday, May 8, 2016 8:22 AM","tags":["tempor","laboris","in","exercitation","in"]}
{"index": {"_index" : "employee-sps"}}
{"about":"Fugiat non duis anim nulla magna ipsum deserunt fugiat eiusmod sint ullamco esse. Id officia consequat commodo ipsum do amet Lorem culpa culpa. Duis nisi veniam officia ea Lorem nostrud incididunt. Aliquip cillum tempor tempor irure mollit sunt do pariatur labore.","address":"643 Grant Avenue, Charco, Iowa, 8516","age":28,"company":"HARMONEY","email":"nolan.saunders@harmoney.net","eyeColor":"blue","favoriteFruit":"strawberry","friends":[{"id":0,"name":"Alberta Castro"},{"id":1,"name":"Rosalyn Shields"},{"id":2,"name":"Middleton Boyle"}],"greeting":"Hello, Nolan! You have 7 unread messages.","guid":"4c576ba1-f99b-4b4e-9ed3-1a65d16634b6","isActive":true,"latitude":"-71.126758","longitude":"119.549774","name":{"first":"Nolan","last":"Saunders"},"payment":"79171.51","phone":"+1 (978) 581-3999","picture":"http:\/\/placehold.it\/32x32","range":[0,1,2,3,4,5,6,7,8,9],"registered":"Sunday, August 12, 2018 8:07 AM","tags":["do","deserunt","Lorem","cupidatat","occaecat"]}
{"index": {"_index" : "employee-sps"}}
{"about":"Occaecat dolore mollit duis ea et minim reprehenderit sit id ullamco dolore ullamco. Non officia pariatur aute veniam. Amet aliquip culpa ipsum anim. Dolore ut aliquip commodo officia fugiat aliqua id officia. In aliqua id proident veniam ea.","address":"871 Lincoln Place, Marysville, Virginia, 4840","age":23,"company":"FURNITECH","email":"phyllis.newton@furnitech.io","eyeColor":"green","favoriteFruit":"strawberry","friends":[{"id":0,"name":"Cruz Brooks"},{"id":1,"name":"Iva Underwood"},{"id":2,"name":"Denise Sexton"}],"greeting":"Hello, Phyllis! You have 8 unread messages.","guid":"d0b1cb3f-5799-49a6-a34f-b1d5805d21ac","isActive":false,"latitude":"66.305527","longitude":"169.026409","name":{"first":"Phyllis","last":"Newton"},"payment":"65476.12","phone":"+1 (800) 582-2753","picture":"http:\/\/placehold.it\/32x32","range":[0,1,2,3,4,5,6,7,8,9],"registered":"Wednesday, May 3, 2017 4:27 AM","tags":["cupidatat","fugiat","quis","exercitation","sint"]}
{"index": {"_index" : "employee-sps"}}
{"about":"Cupidatat esse amet sit incididunt ad nulla. Labore culpa do exercitation duis incididunt. In reprehenderit adipisicing Lorem officia. Sunt officia fugiat nulla irure cillum do ex consequat incididunt ut Lorem consectetur. In sit sint occaecat incididunt consequat consequat cupidatat. Laboris voluptate nulla consequat nostrud aute in nostrud. Pariatur est est sunt amet est aute deserunt ut.","address":"179 Fairview Place, Gwynn, Louisiana, 1085","age":20,"company":"DEMINIMUM","email":"elvia.baker@deminimum.name","eyeColor":"blue","favoriteFruit":"strawberry","friends":[{"id":0,"name":"Dolores Vaughan"},{"id":1,"name":"Sue Murphy"},{"id":2,"name":"Powers William"}],"greeting":"Hello, Elvia! You have 5 unread messages.","guid":"3c905fa5-df8d-45b9-800c-c89c5c428191","isActive":true,"latitude":"-76.889388","longitude":"-15.656616","name":{"first":"Elvia","last":"Baker"},"payment":"57144.61","phone":"+1 (852) 434-3105","picture":"http:\/\/placehold.it\/32x32","range":[0,1,2,3,4,5,6,7,8,9],"registered":"Sunday, June 22, 2014 6:18 AM","tags":["occaecat","pariatur","minim","consequat","aliqua"]}
{"index": {"_index" : "employee-sps"}}
{"about":"Elit ipsum qui excepteur ipsum eu ea eu. Anim elit veniam occaecat qui amet nostrud aliquip aliquip veniam velit cillum quis amet dolor. Tempor laborum ipsum officia ex culpa. Enim non minim occaecat mollit laboris ut ex exercitation. Ad adipisicing exercitation enim irure exercitation eu labore ut mollit esse aute in laboris.","address":"930 Banner Avenue, Holtville, Nevada, 719","age":26,"company":"SLOGANAUT","email":"cheri.stevenson@sloganaut.info","eyeColor":"green","favoriteFruit":"apple","friends":[{"id":0,"name":"Nancy Acosta"},{"id":1,"name":"Mari Ellis"},{"id":2,"name":"Erin Boone"}],"greeting":"Hello, Cheri! You have 9 unread messages.","guid":"a7df035e-9d54-468e-858d-423073cc3090","isActive":true,"latitude":"-27.135605","longitude":"-150.542623","name":{"first":"Cheri","last":"Stevenson"},"payment":"43550.47","phone":"+1 (922) 576-2462","picture":"http:\/\/placehold.it\/32x32","range":[0,1,2,3,4,5,6,7,8,9],"registered":"Tuesday, February 10, 2015 8:29 PM","tags":["commodo","excepteur","sint","ut","dolor"]}
{"index": {"_index" : "employee-sps"}}
{"about":"Reprehenderit eu minim id enim dolor aliquip anim ut ad et consequat. Cillum in labore cupidatat sit ut Lorem anim sint laborum. Et irure sit ad adipisicing consectetur sunt Lorem dolore non tempor proident aute exercitation amet. Anim enim et proident magna excepteur anim.","address":"791 Hinsdale Street, Homeworth, Federated States Of Micronesia, 2242","age":38,"company":"ATGEN","email":"foley.dejesus@atgen.us","eyeColor":"green","favoriteFruit":"banana","friends":[{"id":0,"name":"Stephens Dillard"},{"id":1,"name":"Walsh Caldwell"},{"id":2,"name":"Sandy Fulton"}],"greeting":"Hello, Foley! You have 5 unread messages.","guid":"c2d44a65-71ac-45de-9f90-98b9864fe3f0","isActive":false,"latitude":"-1.485187","longitude":"72.654068","name":{"first":"Foley","last":"Dejesus"},"payment":"26050.06","phone":"+1 (915) 401-3672","picture":"http:\/\/placehold.it\/32x32","range":[0,1,2,3,4,5,6,7,8,9],"registered":"Friday, June 26, 2015 3:16 AM","tags":["enim","amet","labore","ullamco","amet"]}
{"index": {"_index" : "employee-sps"}}
{"about":"Aliqua sint duis aute ut minim reprehenderit sit. Magna nulla officia aliqua magna esse sit consequat esse non sit Lorem in esse aliqua. Fugiat laborum occaecat officia exercitation elit eu pariatur laborum cupidatat in sint aliquip. Enim reprehenderit anim dolore ut excepteur deserunt. Est fugiat mollit dolor commodo aliqua est labore dolor reprehenderit cupidatat dolor. Esse tempor ut cillum duis labore velit officia ipsum in aliqua ut anim.","address":"195 Senator Street, Gadsden, Montana, 1560","age":24,"company":"GRACKER","email":"sellers.butler@gracker.ca","eyeColor":"green","favoriteFruit":"banana","friends":[{"id":0,"name":"Lorna Waller"},{"id":1,"name":"Norma Rodriquez"},{"id":2,"name":"Steele Bennett"}],"greeting":"Hello, Sellers! You have 5 unread messages.","guid":"6b54982a-558f-421d-bff6-96c92969c681","isActive":true,"latitude":"61.797501","longitude":"86.353815","name":{"first":"Sellers","last":"Butler"},"payment":"46938.11","phone":"+1 (906) 405-2181","picture":"http:\/\/placehold.it\/32x32","range":[0,1,2,3,4,5,6,7,8,9],"registered":"Monday, August 14, 2017 4:12 PM","tags":["nisi","commodo","non","commodo","amet"]}
{"index": {"_index" : "employee-sps"}}
{"about":"Ipsum velit eiusmod pariatur cupidatat dolore laboris magna mollit est ut. Non pariatur proident consectetur eu amet ut consectetur excepteur magna ad adipisicing esse et. Consequat ad sint qui tempor.","address":"800 Virginia Place, Fresno, Massachusetts, 4102","age":22,"company":"TERRAGEN","email":"mindy.alston@terragen.me","eyeColor":"green","favoriteFruit":"banana","friends":[{"id":0,"name":"Juana Jenkins"},{"id":1,"name":"Connie Stanley"},{"id":2,"name":"Wells Callahan"}],"greeting":"Hello, Mindy! You have 5 unread messages.","guid":"fbcc5cac-ca1e-4ed2-a2c5-524726bc1eb6","isActive":true,"latitude":"85.744189","longitude":"-169.921538","name":{"first":"Mindy","last":"Alston"},"payment":"38855.28","phone":"+1 (828) 472-3158","picture":"http:\/\/placehold.it\/32x32","range":[0,1,2,3,4,5,6,7,8,9],"registered":"Friday, November 3, 2017 3:33 PM","tags":["ipsum","cillum","magna","nulla","sit"]}
{"index": {"_index" : "employee-sps"}}
{"about":"Ipsum aute velit adipisicing veniam. Exercitation aute duis commodo irure dolore. Ea id id nisi cupidatat quis qui in irure Lorem consectetur.","address":"433 Everett Avenue, Topanga, Kentucky, 154","age":32,"company":"TURNLING","email":"sondra.chaney@turnling.co.uk","eyeColor":"brown","favoriteFruit":"apple","friends":[{"id":0,"name":"Austin Mclaughlin"},{"id":1,"name":"Lauren Stevens"},{"id":2,"name":"Samantha Powell"}],"greeting":"Hello, Sondra! You have 8 unread messages.","guid":"1791dcd8-d6d8-4717-9c44-d98cac830d80","isActive":true,"latitude":"-75.72906","longitude":"32.474704","name":{"first":"Sondra","last":"Chaney"},"payment":"38764.69","phone":"+1 (837) 578-3716","picture":"http:\/\/placehold.it\/32x32","range":[0,1,2,3,4,5,6,7,8,9],"registered":"Wednesday, December 17, 2014 1:58 PM","tags":["fugiat","nisi","id","eu","laborum"]}
{"index": {"_index" : "employee-sps"}}
{"about":"Cillum irure est dolor anim esse minim quis velit non ullamco enim. Culpa exercitation aute sit ex aliquip proident ipsum officia qui laborum. Sunt dolore ea quis sunt reprehenderit officia. Veniam velit magna id consequat velit irure. Adipisicing proident cillum officia amet deserunt non ut eiusmod sunt eu officia ut adipisicing incididunt. Aliquip sint excepteur mollit adipisicing ad eu eu eiusmod consequat velit tempor amet. Eiusmod aliquip enim dolore ipsum cupidatat proident nisi velit.","address":"377 Milford Street, Brookfield, Wisconsin, 5031","age":35,"company":"SYNKGEN","email":"landry.jensen@synkgen.biz","eyeColor":"blue","favoriteFruit":"apple","friends":[{"id":0,"name":"Molina Fitzgerald"},{"id":1,"name":"Moody Drake"},{"id":2,"name":"Michele Phillips"}],"greeting":"Hello, Landry! You have 8 unread messages.","guid":"22eda7c4-2564-4429-9fac-984a7698e6f0","isActive":true,"latitude":"12.296856","longitude":"-22.626914","name":{"first":"Landry","last":"Jensen"},"payment":"49702.65","phone":"+1 (995) 530-3065","picture":"http:\/\/placehold.it\/32x32","range":[0,1,2,3,4,5,6,7,8,9],"registered":"Sunday, December 4, 2016 8:14 PM","tags":["sunt","consectetur","ad","cillum","ut"]}
{"index": {"_index" : "employee-sps"}}
{"about":"Ex ullamco eu Lorem est in do elit fugiat et do id. Ad id proident consequat exercitation magna elit enim nulla. Laboris eu nostrud adipisicing mollit. Labore tempor duis sunt reprehenderit proident pariatur aliquip eiusmod cillum dolore officia et.","address":"892 Ruby Street, Cade, Palau, 3208","age":31,"company":"OPTICON","email":"laura.mccarty@opticon.org","eyeColor":"brown","favoriteFruit":"apple","friends":[{"id":0,"name":"Solis Jackson"},{"id":1,"name":"Roseann Joyner"},{"id":2,"name":"Socorro Glover"}],"greeting":"Hello, Laura! You have 10 unread messages.","guid":"d4f307c6-9276-4153-8020-df13c3b2e39c","isActive":false,"latitude":"-78.521537","longitude":"-84.709762","name":{"first":"Laura","last":"Mccarty"},"payment":"38247.47","phone":"+1 (934) 419-3422","picture":"http:\/\/placehold.it\/32x32","range":[0,1,2,3,4,5,6,7,8,9],"registered":"Sunday, July 19, 2015 12:51 PM","tags":["dolor","amet","ipsum","mollit","aute"]}
{"index": {"_index" : "employee-sps"}}
{"about":"Tempor laboris id reprehenderit qui culpa proident dolor velit. Consectetur nisi aute nostrud pariatur commodo. Eu exercitation duis nulla voluptate Lorem Lorem magna proident dolore velit anim aute. Ex dolore laborum aliquip velit aliquip in sit ullamco nisi est ut quis. Anim anim culpa proident reprehenderit. Cupidatat cillum aliqua commodo esse. Cillum elit commodo aute consequat veniam ipsum cillum culpa.","address":"363 Perry Terrace, Floris, Kansas, 9234","age":35,"company":"MAXIMIND","email":"wendi.donovan@maximind.tv","eyeColor":"green","favoriteFruit":"strawberry","friends":[{"id":0,"name":"Miriam Hartman"},{"id":1,"name":"Hernandez Kelly"},{"id":2,"name":"Lula Robbins"}],"greeting":"Hello, Wendi! You have 8 unread messages.","guid":"d887e160-153a-4743-b632-0620285db7c4","isActive":false,"latitude":"23.132635","longitude":"28.480867","name":{"first":"Wendi","last":"Donovan"},"payment":"63755.27","phone":"+1 (890) 498-2307","picture":"http:\/\/placehold.it\/32x32","range":[0,1,2,3,4,5,6,7,8,9],"registered":"Monday, April 27, 2015 9:31 PM","tags":["duis","adipisicing","amet","proident","do"]}
{"index": {"_index" : "employee-sps"}}
{"about":"Labore sunt elit proident sit eu sit veniam aliqua in sint commodo pariatur. Enim anim id excepteur nisi dolore labore aliquip. Culpa veniam id elit labore adipisicing excepteur.","address":"794 Hyman Court, Carlton, Arizona, 2656","age":24,"company":"SPEEDBOLT","email":"hewitt.bowen@speedbolt.com","eyeColor":"blue","favoriteFruit":"apple","friends":[{"id":0,"name":"Cassandra Goff"},{"id":1,"name":"Jolene Chavez"},{"id":2,"name":"Townsend Carr"}],"greeting":"Hello, Hewitt! You have 9 unread messages.","guid":"d06616bb-34ef-44cd-ba82-9b011f30303a","isActive":false,"latitude":"-6.699477","longitude":"-1.532686","name":{"first":"Hewitt","last":"Bowen"},"payment":"40068.22","phone":"+1 (951) 430-3141","picture":"http:\/\/placehold.it\/32x32","range":[0,1,2,3,4,5,6,7,8,9],"registered":"Saturday, November 15, 2014 10:11 PM","tags":["aute","laboris","veniam","qui","proident"]}
{"index": {"_index" : "employee-sps"}}
{"about":"Dolor commodo qui nostrud proident consectetur elit enim esse. Nulla nulla qui et duis dolor irure cillum nostrud sit Lorem. Sint dolore cupidatat officia reprehenderit Lorem.","address":"540 Seigel Court, Thatcher, North Dakota, 9047","age":27,"company":"MANTRO","email":"wendy.key@mantro.net","eyeColor":"brown","favoriteFruit":"strawberry","friends":[{"id":0,"name":"Debra Hooper"},{"id":1,"name":"Jeannette Hutchinson"},{"id":2,"name":"Wong Davidson"}],"greeting":"Hello, Wendy! You have 9 unread messages.","guid":"f3e3ce1c-4e04-490e-bd9a-54a561f26e30","isActive":true,"latitude":"-22.292605","longitude":"-152.702541","name":{"first":"Wendy","last":"Key"},"payment":"69108.06","phone":"+1 (817) 567-3257","picture":"http:\/\/placehold.it\/32x32","range":[0,1,2,3,4,5,6,7,8,9],"registered":"Saturday, April 22, 2017 4:36 AM","tags":["ut","enim","reprehenderit","elit","consectetur"]}
{"index": {"_index" : "employee-sps"}}
{"about":"Sunt incididunt laborum nulla aliquip. Excepteur do exercitation laboris exercitation ullamco consequat magna deserunt cupidatat aliqua officia. Cillum sunt mollit mollit exercitation aliquip sunt sunt occaecat ullamco proident fugiat sint. Dolor velit enim id elit esse id. Dolore anim exercitation ullamco magna non laboris. Anim ullamco ex non ipsum officia irure esse elit.","address":"804 Jefferson Street, Bath, Nebraska, 5776","age":24,"company":"BUZZOPIA","email":"singleton.bradford@buzzopia.io","eyeColor":"brown","favoriteFruit":"banana","friends":[{"id":0,"name":"Cox Solis"},{"id":1,"name":"Alejandra Bender"},{"id":2,"name":"Joyner Mitchell"}],"greeting":"Hello, Singleton! You have 9 unread messages.","guid":"3519e99e-d234-4027-a12b-aab9c3f733e9","isActive":false,"latitude":"14.009321","longitude":"-97.106946","name":{"first":"Singleton","last":"Bradford"},"payment":"66296.11","phone":"+1 (923) 445-2309","picture":"http:\/\/placehold.it\/32x32","range":[0,1,2,3,4,5,6,7,8,9],"registered":"Sunday, July 31, 2016 2:46 PM","tags":["ullamco","eiusmod","nulla","ad","eiusmod"]}
{"index": {"_index" : "employee-sps"}}
{"about":"Dolore aliqua nulla exercitation exercitation. Deserunt culpa consectetur commodo aliqua fugiat aliquip ut laborum sint officia sint veniam consequat dolor. Officia adipisicing fugiat id irure consequat in cupidatat.","address":"313 Sutton Street, Worton, Mississippi, 6255","age":35,"company":"BOILCAT","email":"vaughan.kirk@boilcat.name","eyeColor":"blue","favoriteFruit":"apple","friends":[{"id":0,"name":"Mariana Blair"},{"id":1,"name":"Monica Gordon"},{"id":2,"name":"Teresa Christian"}],"greeting":"Hello, Vaughan! You have 10 unread messages.","guid":"20f57bad-ec6a-4ef9-9d99-337c875db1b3","isActive":true,"latitude":"34.155713","longitude":"82.622878","name":{"first":"Vaughan","last":"Kirk"},"payment":"1128.43","phone":"+1 (978) 560-2913","picture":"http:\/\/placehold.it\/32x32","range":[0,1,2,3,4,5,6,7,8,9],"registered":"Sunday, July 10, 2016 5:41 AM","tags":["est","et","cupidatat","deserunt","consectetur"]}
{"index": {"_index" : "employee-sps"}}
{"about":"Quis culpa ullamco culpa minim laboris consequat adipisicing non aliqua cillum qui laborum. Veniam pariatur nostrud ad labore ullamco irure aute. Quis est commodo quis duis exercitation esse occaecat elit sit magna. Dolor duis officia non in sit culpa reprehenderit Lorem commodo voluptate ipsum duis. Amet nisi est ea proident consequat nisi amet aute proident quis sit. Veniam ut ipsum officia elit qui. Commodo excepteur eiusmod minim ullamco.","address":"128 Riverdale Avenue, Noxen, Northern Mariana Islands, 4208","age":24,"company":"ACCEL","email":"madeleine.oliver@accel.info","eyeColor":"brown","favoriteFruit":"apple","friends":[{"id":0,"name":"Wood Arnold"},{"id":1,"name":"Mcguire Salas"},{"id":2,"name":"Susanna Hoffman"}],"greeting":"Hello, Madeleine! You have 8 unread messages.","guid":"d6b381b0-f294-4224-8211-f92dc6bc1606","isActive":false,"latitude":"-55.655587","longitude":"-113.896087","name":{"first":"Madeleine","last":"Oliver"},"payment":"64418.94","phone":"+1 (926) 444-3117","picture":"http:\/\/placehold.it\/32x32","range":[0,1,2,3,4,5,6,7,8,9],"registered":"Friday, February 5, 2016 9:47 PM","tags":["cupidatat","est","ipsum","enim","voluptate"]}
{"index": {"_index" : "employee-sps"}}
{"about":"Dolore ad id reprehenderit reprehenderit nulla aliqua aliqua nostrud veniam ad. Minim ipsum id in labore veniam et esse consectetur sit fugiat elit. Ullamco deserunt Lorem ullamco nulla exercitation nisi voluptate sit consectetur anim. Elit id culpa dolor dolor. Ullamco pariatur laborum adipisicing pariatur magna magna. Dolor adipisicing consectetur irure tempor excepteur consequat sit aute commodo aliqua nisi veniam veniam. Enim consequat cillum officia qui officia sit ipsum culpa.","address":"647 Columbus Place, Saddlebrooke, California, 1769","age":30,"company":"BRISTO","email":"mandy.jarvis@bristo.us","eyeColor":"green","favoriteFruit":"strawberry","friends":[{"id":0,"name":"April Shaw"},{"id":1,"name":"Carolina Paul"},{"id":2,"name":"Mable Dudley"}],"greeting":"Hello, Mandy! You have 9 unread messages.","guid":"8ff57741-acf0-4795-940b-d2d2f1621748","isActive":false,"latitude":"-35.572009","longitude":"167.447529","name":{"first":"Mandy","last":"Jarvis"},"payment":"16671.56","phone":"+1 (828) 472-3648","picture":"http:\/\/placehold.it\/32x32","range":[0,1,2,3,4,5,6,7,8,9],"registered":"Thursday, March 30, 2017 2:45 AM","tags":["sint","minim","ad","consectetur","laboris"]}
{"index": {"_index" : "employee-sps"}}
{"about":"Fugiat ad tempor adipisicing nostrud cillum. Cillum velit non voluptate proident qui consectetur est amet esse id. Commodo nisi culpa deserunt commodo quis id duis aute mollit Lorem. Aliquip eu reprehenderit amet nulla est irure. Aliqua quis pariatur consectetur eu enim excepteur adipisicing dolore. Laboris mollit mollit non nostrud Lorem. Laboris laboris aliquip nulla voluptate fugiat deserunt ex ut laboris.","address":"211 Aberdeen Street, Wadsworth, Guam, 6348","age":35,"company":"MULTIFLEX","email":"margery.maddox@multiflex.ca","eyeColor":"green","favoriteFruit":"banana","friends":[{"id":0,"name":"Corina Chan"},{"id":1,"name":"Aileen Riley"},{"id":2,"name":"Alexis Gamble"}],"greeting":"Hello, Margery! You have 10 unread messages.","guid":"2aace025-bbf2-456c-a251-32f42601f40e","isActive":false,"latitude":"-73.274362","longitude":"-113.301754","name":{"first":"Margery","last":"Maddox"},"payment":"9364.3","phone":"+1 (987) 597-2799","picture":"http:\/\/placehold.it\/32x32","range":[0,1,2,3,4,5,6,7,8,9],"registered":"Sunday, August 19, 2018 12:04 PM","tags":["elit","labore","sint","laboris","cillum"]}
{"index": {"_index" : "employee-sps"}}
{"about":"Ad eu reprehenderit ex in id deserunt consectetur nulla ut incididunt dolore ipsum. Eu sit eiusmod aliquip sit proident consequat nisi laborum velit. Ullamco ut nulla irure id minim pariatur esse minim incididunt id non nisi quis aute. In voluptate aliqua aute magna aute ea nostrud consequat officia nulla reprehenderit qui. Aliqua aliqua dolor mollit minim amet qui cupidatat laboris est sint voluptate laborum. Aliquip ea cupidatat aliqua mollit occaecat fugiat.","address":"216 Tapscott Avenue, Succasunna, Utah, 3594","age":27,"company":"UNEEQ","email":"tameka.pittman@uneeq.me","eyeColor":"brown","favoriteFruit":"strawberry","friends":[{"id":0,"name":"Fitzpatrick Cleveland"},{"id":1,"name":"Natalie Benson"},{"id":2,"name":"Graves Franks"}],"greeting":"Hello, Tameka! You have 7 unread messages.","guid":"2786f70b-7083-42dc-aa38-e9bd28a7f0e8","isActive":true,"latitude":"39.388686","longitude":"-20.661602","name":{"first":"Tameka","last":"Pittman"},"payment":"42100.71","phone":"+1 (807) 580-2998","picture":"http:\/\/placehold.it\/32x32","range":[0,1,2,3,4,5,6,7,8,9],"registered":"Wednesday, March 21, 2018 5:45 PM","tags":["ut","elit","exercitation","labore","ipsum"]}
{"index": {"_index" : "employee-sps"}}
{"about":"Cupidatat cupidatat labore nostrud sint velit laboris. Laborum irure ullamco est esse consectetur magna proident reprehenderit sint nostrud reprehenderit dolore amet. Cupidatat voluptate ipsum amet Lorem. Occaecat consectetur non laborum commodo excepteur aliqua irure ea dolor laborum sit ullamco consectetur. Esse laborum Lorem magna ea. Lorem et duis ut excepteur.","address":"610 Seagate Avenue, Bangor, South Dakota, 8078","age":34,"company":"STREZZO","email":"summer.oneal@strezzo.co.uk","eyeColor":"blue","favoriteFruit":"apple","friends":[{"id":0,"name":"Pearl Brown"},{"id":1,"name":"Zamora Conrad"},{"id":2,"name":"Marion Barlow"}],"greeting":"Hello, Summer! You have 5 unread messages.","guid":"86d36fd2-8b42-4452-b658-a73a9c42b7b1","isActive":false,"latitude":"-26.850086","longitude":"139.608461","name":{"first":"Summer","last":"Oneal"},"payment":"43216.95","phone":"+1 (822) 509-2211","picture":"http:\/\/placehold.it\/32x32","range":[0,1,2,3,4,5,6,7,8,9],"registered":"Sunday, December 20, 2015 1:34 AM","tags":["aute","veniam","ipsum","incididunt","voluptate"]}
{"index": {"_index" : "employee-sps"}}
{"about":"Incididunt ullamco nisi duis voluptate excepteur anim qui magna culpa elit labore mollit veniam. Fugiat sint voluptate ut sint officia adipisicing do ut laboris in laboris veniam. Fugiat ad sint officia anim sunt occaecat minim id ipsum. Quis mollit qui eiusmod elit consectetur consequat aliquip sunt. Tempor exercitation occaecat culpa do commodo labore duis minim ea est proident. Adipisicing irure exercitation non adipisicing ex esse et laborum reprehenderit aliqua nisi reprehenderit do dolor. Amet veniam cupidatat minim ullamco proident qui enim.","address":"104 Dennett Place, Corriganville, Wyoming, 4050","age":36,"company":"SLAMBDA","email":"byrd.warner@slambda.biz","eyeColor":"green","favoriteFruit":"strawberry","friends":[{"id":0,"name":"Geneva Schroeder"},{"id":1,"name":"Alma Mosley"},{"id":2,"name":"Vicky Ward"}],"greeting":"Hello, Byrd! You have 9 unread messages.","guid":"d2eeeb9c-5f04-425d-b2af-713ec5ba410b","isActive":false,"latitude":"-51.009268","longitude":"-71.488747","name":{"first":"Byrd","last":"Warner"},"payment":"73227.09","phone":"+1 (896) 555-2113","picture":"http:\/\/placehold.it\/32x32","range":[0,1,2,3,4,5,6,7,8,9],"registered":"Wednesday, March 30, 2016 7:51 PM","tags":["eiusmod","mollit","eiusmod","anim","adipisicing"]}
{"index": {"_index" : "employee-sps"}}
{"about":"Sint et culpa ea esse officia ea nulla occaecat nostrud id occaecat excepteur ullamco consectetur. Mollit officia commodo quis cupidatat do labore. Magna officia consequat sunt eu anim. Pariatur exercitation velit proident proident do minim esse do incididunt ad veniam nostrud.","address":"251 Veterans Avenue, Cavalero, Colorado, 5686","age":37,"company":"ACUMENTOR","email":"elisa.stout@acumentor.org","eyeColor":"green","favoriteFruit":"banana","friends":[{"id":0,"name":"Shawn Schmidt"},{"id":1,"name":"Small Ratliff"},{"id":2,"name":"Billie Quinn"}],"greeting":"Hello, Elisa! You have 10 unread messages.","guid":"1a66e553-f441-4494-9168-dfe740020dac","isActive":false,"latitude":"57.693247","longitude":"-149.388935","name":{"first":"Elisa","last":"Stout"},"payment":"79494.27","phone":"+1 (918) 556-2874","picture":"http:\/\/placehold.it\/32x32","range":[0,1,2,3,4,5,6,7,8,9],"registered":"Thursday, January 29, 2015 3:57 AM","tags":["in","commodo","et","et","officia"]}
{"index": {"_index" : "employee-sps"}}
{"about":"Consectetur excepteur incididunt laborum reprehenderit labore deserunt ullamco id nisi ea. Est veniam reprehenderit id irure veniam commodo consectetur tempor cupidatat qui mollit aute deserunt. Non ad reprehenderit incididunt voluptate irure aliquip mollit adipisicing ullamco sunt commodo sunt.","address":"234 Lake Avenue, Chapin, Michigan, 8724","age":21,"company":"JAMNATION","email":"meredith.wolf@jamnation.tv","eyeColor":"blue","favoriteFruit":"banana","friends":[{"id":0,"name":"Kane Bruce"},{"id":1,"name":"Roxanne Bentley"},{"id":2,"name":"Byers Massey"}],"greeting":"Hello, Meredith! You have 7 unread messages.","guid":"292656af-b183-43fa-9384-115b3fa4492e","isActive":false,"latitude":"-2.213824","longitude":"-43.995874","name":{"first":"Meredith","last":"Wolf"},"payment":"76391.98","phone":"+1 (854) 439-3989","picture":"http:\/\/placehold.it\/32x32","range":[0,1,2,3,4,5,6,7,8,9],"registered":"Sunday, November 18, 2018 7:22 AM","tags":["aute","in","excepteur","proident","occaecat"]}
{"index": {"_index" : "employee-sps"}}
{"about":"Aliquip minim qui veniam anim consectetur anim laboris. Voluptate aliquip magna officia quis. Nostrud aliqua amet est ut aute consectetur laboris occaecat. Lorem aliquip irure pariatur laboris tempor cillum veniam reprehenderit nulla. Sint enim dolor incididunt exercitation irure voluptate aliqua.","address":"151 Lynch Street, Vernon, Virgin Islands, 9572","age":39,"company":"ISOSTREAM","email":"puckett.burris@isostream.com","eyeColor":"brown","favoriteFruit":"banana","friends":[{"id":0,"name":"Cassie Daugherty"},{"id":1,"name":"Howell Price"},{"id":2,"name":"Blackburn Neal"}],"greeting":"Hello, Puckett! You have 8 unread messages.","guid":"fe199ead-bcca-49ce-9672-d7b922fa89bf","isActive":true,"latitude":"72.304107","longitude":"50.40726","name":{"first":"Puckett","last":"Burris"},"payment":"59551.08","phone":"+1 (966) 466-3229","picture":"http:\/\/placehold.it\/32x32","range":[0,1,2,3,4,5,6,7,8,9],"registered":"Thursday, February 2, 2017 2:13 PM","tags":["nulla","labore","nulla","consequat","ea"]}

GET /employee-sps/_search

GET /employee-sps/_search
{
  "query": {
    "bool": {"filter":{
        "range": {"age": {"gt": 30}}
    }}
  }
}

GET /employee-sps/_search
{
  "size":5,
  "query": {
    "bool": {
      "filter":{
        "bool": {"must":[
        {"range": {"age": {"lte": 30}}},
        {"range": {"payment": {"gt": 50000}}}
        ]
      }
    }}
  },
  "sort": [
    {
      "payment": {
        "order": "desc"
      }
    }
  ]
}










